module gitlab.com/widnyana/clear

go 1.12

require (
	github.com/dgrijalva/jwt-go v3.2.0+incompatible
	github.com/gin-contrib/cors v1.3.0
	github.com/gin-contrib/sse v0.1.0 // indirect
	github.com/gin-gonic/gin v1.4.0
	github.com/go-playground/locales v0.12.1 // indirect
	github.com/go-playground/universal-translator v0.16.0 // indirect
	github.com/go-sql-driver/mysql v1.4.1
	github.com/gomodule/redigo v2.0.0+incompatible
	github.com/jinzhu/gorm v1.9.9
	github.com/jmoiron/sqlx v1.2.0
	github.com/leodido/go-urn v1.1.0 // indirect
	github.com/matoous/go-nanoid v0.0.0-20190515092250-e998f83de84d
	github.com/mattn/go-isatty v0.0.8 // indirect
	github.com/rs/zerolog v1.14.3
	github.com/spf13/viper v1.4.0
	github.com/ugorji/go v1.1.5-pre // indirect
	golang.org/x/crypto v0.0.0-20190621222207-cc06ce4a13d4 // indirect
	golang.org/x/net v0.0.0-20190628185345-da137c7871d7 // indirect
	golang.org/x/sys v0.0.0-20190626221950-04f50cda93cb // indirect
	golang.org/x/text v0.3.2 // indirect
	gopkg.in/go-playground/validator.v9 v9.29.0
)
